cat,totalinstructions,cachereference, L1-icache-load-misses, L1-dcache-load-misses, branchmisses
1,739125,37609,8426,13893,7231
2,810579,42626,9381,16430,7776
3,732952,39109,9245,15135,7332
4,835432,38862,12517,15754,7957
5,792464,39134,9332,14907,7603
6,839510,39475,8893,14967,7787
7,838400,41503,9284,16280,8140
8,751727,37117,8783,13968,7407
9,732901,36829,8926,13597,7283
10,740170,36371,8760,13754,7375
